{
  "response": {
      "status": "ok",
      "userTier": "developer",
      "total": 21540,
      "startIndex": 1,
      "pageSize": 10,
      "currentPage": 1,
      "pages": 2154,
      "orderBy": "relevance",
      "results": [
          {
              "id": "film/2024/apr/10/margot-robbie-monopoly-movie",
              "type": "article",
              "sectionId": "film",
              "sectionName": "Film",
              "webPublicationDate": "2024-04-10T17:32:53Z",
              "webTitle": "Margot Robbie to produce ‘blockbuster’ Monopoly movie with Hasbro",
              "webUrl": "https://www.theguardian.com/film/2024/apr/10/margot-robbie-monopoly-movie",
              "apiUrl": "https://content.guardianapis.com/film/2024/apr/10/margot-robbie-monopoly-movie",
              "isHosted": false,
              "pillarId": "pillar/arts",
              "pillarName": "Arts"
          },
          {
              "id": "film/2024/mar/08/adam-sandler-beats-margot-robbie-to-be-named-hollywoods-top-earner",
              "type": "article",
              "sectionId": "film",
              "sectionName": "Film",
              "webPublicationDate": "2024-03-08T12:13:50Z",
              "webTitle": "Adam Sandler named Hollywood’s top earner ahead of Margot Robbie",
              "webUrl": "https://www.theguardian.com/film/2024/mar/08/adam-sandler-beats-margot-robbie-to-be-named-hollywoods-top-earner",
              "apiUrl": "https://content.guardianapis.com/film/2024/mar/08/adam-sandler-beats-margot-robbie-to-be-named-hollywoods-top-earner",
              "isHosted": false,
              "pillarId": "pillar/arts",
              "pillarName": "Arts"
          },
          {
              "id": "film/2024/jan/31/margot-robbie-oscar-snub-response-barbie-nominations",
              "type": "article",
              "sectionId": "film",
              "sectionName": "Film",
              "webPublicationDate": "2024-01-31T20:29:13Z",
              "webTitle": "Margot Robbie on Barbie Oscars snub: ‘It’s been an incredible year for films’",
              "webUrl": "https://www.theguardian.com/film/2024/jan/31/margot-robbie-oscar-snub-response-barbie-nominations",
              "apiUrl": "https://content.guardianapis.com/film/2024/jan/31/margot-robbie-oscar-snub-response-barbie-nominations",
              "isHosted": false,
              "pillarId": "pillar/arts",
              "pillarName": "Arts"
          },
          {
              "id": "film/2024/jan/08/golden-globes-awards-2024-australia-winners-list-sarah-snook-margot-robbie-elizabeth-debicki",
              "type": "article",
              "sectionId": "film",
              "sectionName": "Film",
              "webPublicationDate": "2024-01-08T04:53:11Z",
              "webTitle": "Golden Globe awards 2024: Australians win big as Sarah Snook, Margot Robbie and Elizabeth Debicki land gongs",
              "webUrl": "https://www.theguardian.com/film/2024/jan/08/golden-globes-awards-2024-australia-winners-list-sarah-snook-margot-robbie-elizabeth-debicki",
              "apiUrl": "https://content.guardianapis.com/film/2024/jan/08/golden-globes-awards-2024-australia-winners-list-sarah-snook-margot-robbie-elizabeth-debicki",
              "isHosted": false,
              "pillarId": "pillar/arts",
              "pillarName": "Arts"
          },
          {
              "id": "fashion/article/2024/jul/20/polka-dots-hitting-fashion-sweet-spot-summer",
              "type": "article",
              "sectionId": "fashion",
              "sectionName": "Fashion",
              "webPublicationDate": "2024-07-20T06:00:30Z",
              "webTitle": "‘Symbol of energy’: Polka dots hit fashion’s sweet spot this summer",
              "webUrl": "https://www.theguardian.com/fashion/article/2024/jul/20/polka-dots-hitting-fashion-sweet-spot-summer",
              "apiUrl": "https://content.guardianapis.com/fashion/article/2024/jul/20/polka-dots-hitting-fashion-sweet-spot-summer",
              "isHosted": false,
              "pillarId": "pillar/lifestyle",
              "pillarName": "Lifestyle"
          },
          {
              "id": "music/article/2024/jul/07/robbie-williams-review-hyde-park-london",
              "type": "article",
              "sectionId": "music",
              "sectionName": "Music",
              "webPublicationDate": "2024-07-07T11:54:03Z",
              "webTitle": "Robbie Williams review – slick and saucy end-of-the-pier pop",
              "webUrl": "https://www.theguardian.com/music/article/2024/jul/07/robbie-williams-review-hyde-park-london",
              "apiUrl": "https://content.guardianapis.com/music/article/2024/jul/07/robbie-williams-review-hyde-park-london",
              "isHosted": false,
              "pillarId": "pillar/arts",
              "pillarName": "Arts"
          },
          {
              "id": "world/2024/jan/23/disinformation-attacks-targeted-voters-media-and-lgbtq-groups-eu-report-finds",
              "type": "article",
              "sectionId": "world",
              "sectionName": "World news",
              "webPublicationDate": "2024-01-23T18:40:22Z",
              "webTitle": "Disinformation attacks targeted voters, media and LGBTQ+ groups, EU report finds",
              "webUrl": "https://www.theguardian.com/world/2024/jan/23/disinformation-attacks-targeted-voters-media-and-lgbtq-groups-eu-report-finds",
              "apiUrl": "https://content.guardianapis.com/world/2024/jan/23/disinformation-attacks-targeted-voters-media-and-lgbtq-groups-eu-report-finds",
              "isHosted": false,
              "pillarId": "pillar/news",
              "pillarName": "News"
          },
          {
              "id": "artanddesign/article/2024/jun/02/the-big-picture-robbie-lawrence-long-walk-home-highland-games",
              "type": "article",
              "sectionId": "artanddesign",
              "sectionName": "Art and design",
              "webPublicationDate": "2024-06-02T06:00:24Z",
              "webTitle": "The big picture: Robbie Lawrence’s search for the tartan spirit",
              "webUrl": "https://www.theguardian.com/artanddesign/article/2024/jun/02/the-big-picture-robbie-lawrence-long-walk-home-highland-games",
              "apiUrl": "https://content.guardianapis.com/artanddesign/article/2024/jun/02/the-big-picture-robbie-lawrence-long-walk-home-highland-games",
              "isHosted": false,
              "pillarId": "pillar/arts",
              "pillarName": "Arts"
          },
          {
              "id": "music/article/2024/may/08/indigo-girls-homophobia-hope-barbie-its-only-life-after-all",
              "type": "article",
              "sectionId": "music",
              "sectionName": "Music",
              "webPublicationDate": "2024-05-08T14:00:13Z",
              "webTitle": "‘Coming out, it was like a veil was lifted’: Indigo Girls on homophobia, hope and their big Barbie moment",
              "webUrl": "https://www.theguardian.com/music/article/2024/may/08/indigo-girls-homophobia-hope-barbie-its-only-life-after-all",
              "apiUrl": "https://content.guardianapis.com/music/article/2024/may/08/indigo-girls-homophobia-hope-barbie-its-only-life-after-all",
              "isHosted": false,
              "pillarId": "pillar/arts",
              "pillarName": "Arts"
          },
          {
              "id": "media/2023/sep/29/afr-powerlist-ai-images-distorted-sam-kerr-margot-robbie-sky-news-climate-change-weekly-beast",
              "type": "article",
              "sectionId": "media",
              "sectionName": "Media",
              "webPublicationDate": "2023-09-29T03:50:56Z",
              "webTitle": "AFR’s power list goes deep fake with the likes of Sam Kerr and Margot Robbie to make a point | Weekly Beast",
              "webUrl": "https://www.theguardian.com/media/2023/sep/29/afr-powerlist-ai-images-distorted-sam-kerr-margot-robbie-sky-news-climate-change-weekly-beast",
              "apiUrl": "https://content.guardianapis.com/media/2023/sep/29/afr-powerlist-ai-images-distorted-sam-kerr-margot-robbie-sky-news-climate-change-weekly-beast",
              "isHosted": false,
              "pillarId": "pillar/news",
              "pillarName": "News"
          }
      ]
  }
}
