{
  "response": {
      "status": "ok",
      "userTier": "developer",
      "total": 2518410,
      "startIndex": 1,
      "pageSize": 10,
      "currentPage": 1,
      "pages": 251841,
      "orderBy": "relevance",
      "results": [
          {
              "id": "commentisfree/2017/dec/12/harry-potter-magic-jk-rowling",
              "type": "article",
              "sectionId": "commentisfree",
              "sectionName": "Opinion",
              "webPublicationDate": "2017-12-12T06:00:26Z",
              "webTitle": "Harry Potter and the £4.50 chocolate frog | Alice O’Keeffe",
              "webUrl": "https://www.theguardian.com/commentisfree/2017/dec/12/harry-potter-magic-jk-rowling",
              "apiUrl": "https://content.guardianapis.com/commentisfree/2017/dec/12/harry-potter-magic-jk-rowling",
              "isHosted": false,
              "pillarId": "pillar/opinion",
              "pillarName": "Opinion"
          },
          {
              "id": "lifeandstyle/2017/dec/13/oumuamua-interstellar-body-sent-by-aliens-notes-queries",
              "type": "article",
              "sectionId": "lifeandstyle",
              "sectionName": "Life and style",
              "webPublicationDate": "2017-12-13T11:30:01Z",
              "webTitle": "What if the interstellar body Oumuamua really was sent by aliens? | Notes and queries",
              "webUrl": "https://www.theguardian.com/lifeandstyle/2017/dec/13/oumuamua-interstellar-body-sent-by-aliens-notes-queries",
              "apiUrl": "https://content.guardianapis.com/lifeandstyle/2017/dec/13/oumuamua-interstellar-body-sent-by-aliens-notes-queries",
              "isHosted": false,
              "pillarId": "pillar/lifestyle",
              "pillarName": "Lifestyle"
          },
          {
              "id": "us-news/2017/dec/16/mothers-cartoon-france-us",
              "type": "article",
              "sectionId": "us-news",
              "sectionName": "US news",
              "webPublicationDate": "2017-12-16T10:00:02Z",
              "webTitle": "How new moms are supported – or not – in France v the US: a feminist cartoon",
              "webUrl": "https://www.theguardian.com/us-news/2017/dec/16/mothers-cartoon-france-us",
              "apiUrl": "https://content.guardianapis.com/us-news/2017/dec/16/mothers-cartoon-france-us",
              "isHosted": false,
              "pillarId": "pillar/news",
              "pillarName": "News"
          },
          {
              "id": "artanddesign/2018/jan/02/best-architecture-design-of-2018-windermere-vanda",
              "type": "article",
              "sectionId": "artanddesign",
              "sectionName": "Art and design",
              "webPublicationDate": "2018-01-02T15:00:19Z",
              "webTitle": "Wet docks, giant ducks and the zero-waste city: the best architecture and design of 2018",
              "webUrl": "https://www.theguardian.com/artanddesign/2018/jan/02/best-architecture-design-of-2018-windermere-vanda",
              "apiUrl": "https://content.guardianapis.com/artanddesign/2018/jan/02/best-architecture-design-of-2018-windermere-vanda",
              "isHosted": false,
              "pillarId": "pillar/arts",
              "pillarName": "Arts"
          },
          {
              "id": "us-news/2017/dec/22/why-medical-students-are-practicing-abortions-on-papayas",
              "type": "article",
              "sectionId": "us-news",
              "sectionName": "US news",
              "webPublicationDate": "2017-12-22T12:00:00Z",
              "webTitle": "Why medical students are practicing abortions on papayas",
              "webUrl": "https://www.theguardian.com/us-news/2017/dec/22/why-medical-students-are-practicing-abortions-on-papayas",
              "apiUrl": "https://content.guardianapis.com/us-news/2017/dec/22/why-medical-students-are-practicing-abortions-on-papayas",
              "isHosted": false,
              "pillarId": "pillar/news",
              "pillarName": "News"
          },
          {
              "id": "football/blog/2017/dec/11/atletico-get-back-to-what-they-know-and-make-la-liga-a-four-horse-race",
              "type": "article",
              "sectionId": "football",
              "sectionName": "Football",
              "webPublicationDate": "2017-12-11T15:59:13Z",
              "webTitle": "Atlético get back to what they know and make La Liga a four-horse race | Sid Lowe",
              "webUrl": "https://www.theguardian.com/football/blog/2017/dec/11/atletico-get-back-to-what-they-know-and-make-la-liga-a-four-horse-race",
              "apiUrl": "https://content.guardianapis.com/football/blog/2017/dec/11/atletico-get-back-to-what-they-know-and-make-la-liga-a-four-horse-race",
              "isHosted": false,
              "pillarId": "pillar/sport",
              "pillarName": "Sport"
          },
          {
              "id": "books/2017/dec/15/the-house-of-government-by-yuri-slezkine-review-russian-revolution",
              "type": "article",
              "sectionId": "books",
              "sectionName": "Books",
              "webPublicationDate": "2017-12-15T09:00:12Z",
              "webTitle": "The House of Government by Yuri Slezkine review – the Russian Revolution told through one building",
              "webUrl": "https://www.theguardian.com/books/2017/dec/15/the-house-of-government-by-yuri-slezkine-review-russian-revolution",
              "apiUrl": "https://content.guardianapis.com/books/2017/dec/15/the-house-of-government-by-yuri-slezkine-review-russian-revolution",
              "isHosted": false,
              "pillarId": "pillar/arts",
              "pillarName": "Arts"
          },
          {
              "id": "politics/2017/dec/12/theresa-may-puts-tackling-climate-change-back-on-tory-agenda",
              "type": "article",
              "sectionId": "politics",
              "sectionName": "Politics",
              "webPublicationDate": "2017-12-12T00:16:51Z",
              "webTitle": "Theresa May puts tackling climate change back on Tory agenda",
              "webUrl": "https://www.theguardian.com/politics/2017/dec/12/theresa-may-puts-tackling-climate-change-back-on-tory-agenda",
              "apiUrl": "https://content.guardianapis.com/politics/2017/dec/12/theresa-may-puts-tackling-climate-change-back-on-tory-agenda",
              "isHosted": false,
              "pillarId": "pillar/news",
              "pillarName": "News"
          },
          {
              "id": "world/2017/dec/11/vladimir-putin-visit-to-syria-airbase-bashir-al-assad",
              "type": "article",
              "sectionId": "world",
              "sectionName": "World news",
              "webPublicationDate": "2017-12-11T16:45:08Z",
              "webTitle": "Vladimir Putin makes triumphant visit to Syria airbase",
              "webUrl": "https://www.theguardian.com/world/2017/dec/11/vladimir-putin-visit-to-syria-airbase-bashir-al-assad",
              "apiUrl": "https://content.guardianapis.com/world/2017/dec/11/vladimir-putin-visit-to-syria-airbase-bashir-al-assad",
              "isHosted": false,
              "pillarId": "pillar/news",
              "pillarName": "News"
          },
          {
              "id": "lifeandstyle/2017/dec/30/seasonal-gardening-advice-winter-flowering-clematis-dead-hedge-book-of-seeds",
              "type": "article",
              "sectionId": "lifeandstyle",
              "sectionName": "Life and style",
              "webPublicationDate": "2017-12-30T11:00:10Z",
              "webTitle": "Gardens: what to do this week",
              "webUrl": "https://www.theguardian.com/lifeandstyle/2017/dec/30/seasonal-gardening-advice-winter-flowering-clematis-dead-hedge-book-of-seeds",
              "apiUrl": "https://content.guardianapis.com/lifeandstyle/2017/dec/30/seasonal-gardening-advice-winter-flowering-clematis-dead-hedge-book-of-seeds",
              "isHosted": false,
              "pillarId": "pillar/lifestyle",
              "pillarName": "Lifestyle"
          }
      ]
  }
}
